^C:\LAB_3\LAB_3\LAB_3\X64\SIMULATION\LAB3ENCLAVE_U.OBJ|C:\LAB_3\LAB_3\LAB_3\X64\SIMULATION\LAB_3.OBJ
C:\LAB_3\LAB_3\LAB_3\X64\SIMULATION\LAB_3.ILK
C:\LAB_3\LAB_3\X64\SIMULATION\LAB_3.EXE
C:\LAB_3\LAB_3\X64\SIMULATION\LAB_3.PDB
